{
    "append": true,
    "baseMaps": [
	{
	    "name": "OACI-VFR (IGN/SIA)",
	    "url_template": "https://wxs.ign.fr/an7nvfzojv5wa96dsga5nk8w/geoportail/wmts?layer=GEOGRAPHICALGRIDSYSTEMS.MAPS.SCAN-OACI&style=normal&tilematrixset=PM&Service=WMTS&Request=GetTile&Version=1.0.0&Format=image%2Fjpeg&TileMatrix={z}&TileCol={x}&TileRow={y}",
	    "minZoom": 6,
	    "maxZoom": 11,
	    "attribution": "<a href=\"https://www.geoportail.gouv.fr/depot/api/cgu/CGU_API_libre.pdf\"><img src=\"https://wxs.ign.fr/static/logos/IGN/IGN.gif\" alt=\"IGN\" height=\"32\" /></a>"
	},
	{
	    "name": "IGN Image a\u00e9rienne (France)",
	    "url_template": "https://wxs.ign.fr/an7nvfzojv5wa96dsga5nk8w/geoportail/wmts?layer=ORTHOIMAGERY.ORTHOPHOTOS&style=normal&tilematrixset=PM&Service=WMTS&Request=GetTile&Version=1.0.0&Format=image%2Fjpeg&TileMatrix={z}&TileCol={x}&TileRow={y}",
	    "minZoom": 0,
	    "maxZoom": 19,
	    "attribution": "<a href=\"https://www.geoportail.gouv.fr/depot/api/cgu/CGU_API_libre.pdf\"><img src=\"https://wxs.ign.fr/static/logos/IGN/IGN.gif\" alt=\"IGN\" height=\"32\" /></a>"
	}
    ],
    "defaultBaseMap": "",
    "overlays": {
	"Plafonds (Sans protocole)": {"type":"L.GeoJSON.AJAX", "url":"https://cartes.1222.fr/aacm/plafonds/plafonds_sp.geojson", "params":{}},
	"Plafonds (CBASE)": "https://cartes.1222.fr/aacm/plafonds/plafonds_cbase.geojson",
	"Plafonds (CEL4500)": "https://cartes.1222.fr/aacm/plafonds/plafonds_cel4500.geojson",
	"Plafonds (CEL55)": "https://cartes.1222.fr/aacm/plafonds/plafonds_cel55.geojson",
	"Sprint 1 (Tour du kilomètre 5)": "https://cartes.1222.fr/aacm/sprints/sprint_01.geojson",
	"Sprint 2 (Triangle 23.6 km Nord)": "https://cartes.1222.fr/aacm/sprints/sprint_02.geojson",
	"Sprint 3 (Triangle 26.4 km Sud)": "https://cartes.1222.fr/aacm/sprints/sprint_03.geojson",
	"Sprint 4 (Polygone 30 km)": "https://cartes.1222.fr/aacm/sprints/sprint_04.geojson",
	"Sprint 5 (Aller Retour 16.8 km)": "https://cartes.1222.fr/aacm/sprints/sprint_05.geojson",
	"Sprint 6 (Triangle 27.6 km)": "https://cartes.1222.fr/aacm/sprints/sprint_06.geojson",
	"Sprint 7 (Tour du kilomètre 10)": "https://cartes.1222.fr/aacm/sprints/sprint_07.geojson",
	"Sprint 8 (Triangle 41 km)": "https://cartes.1222.fr/aacm/sprints/sprint_08.geojson",
	"Sprint 9 (Polygone 58 km)": "https://cartes.1222.fr/aacm/sprints/sprint_09.geojson",
	"Sprint 10 (Polygone 55 km)": "https://cartes.1222.fr/aacm/sprints/sprint_10.geojson",
	"Sprint 11 (Triangle 35 km)": "https://cartes.1222.fr/aacm/sprints/sprint_11.geojson",
	"Sprint 12 (Triangle 35 km)": "https://cartes.1222.fr/aacm/sprints/sprint_12.geojson",
	"Sprint 13 (Triangle 45 km)": "https://cartes.1222.fr/aacm/sprints/sprint_13.geojson",
	"Sprint 14 (Triangle 51 km)": "https://cartes.1222.fr/aacm/sprints/sprint_14.geojson",
	"Sprint 15 (Triangle 49 km)": "https://cartes.1222.fr/aacm/sprints/sprint_15.geojson",
	"Sprint 16 (Polygone 53 km)": "https://cartes.1222.fr/aacm/sprints/sprint_16.geojson",
	"Sprint 17 (Aller-Retour 59 km)": "https://cartes.1222.fr/aacm/sprints/sprint_17.geojson",
	"Sprint 18 (Aller-Retour 54 km)": "https://cartes.1222.fr/aacm/sprints/sprint_18.geojson",
	"Sprint 19 (Polygone 84 km)": "https://cartes.1222.fr/aacm/sprints/sprint_19.geojson",
	"Sprint 20 (Triangle 85 km)": "https://cartes.1222.fr/aacm/sprints/sprint_20.geojson",
	"Circuit #01 (Aller-retour 515,08 km)": "https://cartes.1222.fr/aacm/tasks/task_01.geojson",
	"Circuit #02 (Polygon 525,21 km)": "https://cartes.1222.fr/aacm/tasks/task_02.geojson",
	"Circuit #03 (Triangle 751,35 km)": "https://cartes.1222.fr/aacm/tasks/task_03.geojson",
	"Circuit #04 (Triangle 676,57 km)": "https://cartes.1222.fr/aacm/tasks/task_04.geojson",
	"Circuit #05 (Triangle 663,61 km)": "https://cartes.1222.fr/aacm/tasks/task_05.geojson",
	"Circuit #06 (Aller-retour 636,66 km)": "https://cartes.1222.fr/aacm/tasks/task_06.geojson",
	"Circuit #07 (Triangle 615,91 km)": "https://cartes.1222.fr/aacm/tasks/task_07.geojson",
	"Circuit #08 (Aller-retour 610,99 km)": "https://cartes.1222.fr/aacm/tasks/task_08.geojson",
	"Circuit #09 (Triangle 589,9 km)": "https://cartes.1222.fr/aacm/tasks/task_09.geojson",
	"Circuit #10 (Triangle 580,3 km)": "https://cartes.1222.fr/aacm/tasks/task_10.geojson",
	"Circuit #11 (Aller-retour 557,23 km)": "https://cartes.1222.fr/aacm/tasks/task_11.geojson",
	"Circuit #12 (Triangle 534,74 km)": "https://cartes.1222.fr/aacm/tasks/task_12.geojson",
	"Circuit #13 (Triangle 527,88 km)": "https://cartes.1222.fr/aacm/tasks/task_13.geojson",
	"Circuit #14 (Triangle 521,82 km)": "https://cartes.1222.fr/aacm/tasks/task_14.geojson",
	"Circuit #15 (Polygon 506,75 km)": "https://cartes.1222.fr/aacm/tasks/task_15.geojson",
	"Circuit #16 (Aller-retour 455,9 km)": "https://cartes.1222.fr/aacm/tasks/task_16.geojson",
	"Circuit #17 (Aller-retour 452,22 km)": "https://cartes.1222.fr/aacm/tasks/task_17.geojson",
	"Circuit #18 (Triangle 449,58 km)": "https://cartes.1222.fr/aacm/tasks/task_18.geojson",
	"Circuit #19 (Aller-retour 438,91 km)": "https://cartes.1222.fr/aacm/tasks/task_19.geojson",
	"Circuit #20 (Triangle 429,08 km)": "https://cartes.1222.fr/aacm/tasks/task_20.geojson",
	"Circuit #21 (Triangle 356,12 km)": "https://cartes.1222.fr/aacm/tasks/task_21.geojson",
	"Circuit #22 (Aller-retour 318,64 km)": "https://cartes.1222.fr/aacm/tasks/task_22.geojson",
	"Circuit #23 (Aller-retour 314,31 km)": "https://cartes.1222.fr/aacm/tasks/task_23.geojson",
	"Circuit #24 (Triangle 302,84 km)": "https://cartes.1222.fr/aacm/tasks/task_24.geojson",
	"Circuit #25 (Triangle 303,28 km)": "https://cartes.1222.fr/aacm/tasks/task_25.geojson",
	"Circuit #26 (Triangle 303,28 km)": "https://cartes.1222.fr/aacm/tasks/task_26.geojson",
	"Circuit #27 (Triangle 276,46 km)": "https://cartes.1222.fr/aacm/tasks/task_27.geojson",
	"Circuit #28 (Triangle 264,73 km)": "https://cartes.1222.fr/aacm/tasks/task_28.geojson",
	"Circuit #29 (Triangle 244,98 km)": "https://cartes.1222.fr/aacm/tasks/task_29.geojson",
	"Circuit #30 (Aller-retour 192,98 km)": "https://cartes.1222.fr/aacm/tasks/task_30.geojson",
	"Circuit #31 (Triangle 180,71 km)": "https://cartes.1222.fr/aacm/tasks/task_31.geojson",
	"Circuit #32 (Aller-retour 162,89 km)": "https://cartes.1222.fr/aacm/tasks/task_32.geojson",
	"Circuit #33 (Triangle 132,56 km)": "https://cartes.1222.fr/aacm/tasks/task_33.geojson",
	"Circuit #34 (Aller-retour 515,08 km)": "https://cartes.1222.fr/aacm/tasks/task_34.geojson",
	"Circuit #35 (Polygon 54,65 km)": "https://cartes.1222.fr/aacm/tasks/task_35.geojson",
	"Circuit #36 (Triangle 37,05 km)": "https://cartes.1222.fr/aacm/tasks/task_36.geojson",
	"Circuit #37 (Triangle 35,18 km)": "https://cartes.1222.fr/aacm/tasks/task_37.geojson",
	"Circuit #38 (Triangle 36,88 km)": "https://cartes.1222.fr/aacm/tasks/task_38.geojson",
	"Circuit #39 (Triangle 35,18 km)": "https://cartes.1222.fr/aacm/tasks/task_39.geojson",
	"Circuit #40 (Polygon 53,37 km)": "https://cartes.1222.fr/aacm/tasks/task_40.geojson",
	"Circuit #41 (Triangle 50,55 km)": "https://cartes.1222.fr/aacm/tasks/task_41.geojson",
	"Circuit #42 (Polygon 49,39 km)": "https://cartes.1222.fr/aacm/tasks/task_42.geojson",
	"Circuit #43 (Triangle 60,96 km)": "https://cartes.1222.fr/aacm/tasks/task_43.geojson",
	"Circuit #44 (Triangle 55,89 km)": "https://cartes.1222.fr/aacm/tasks/task_44.geojson",
	"Circuit #45 (Polygon 85,7 km)": "https://cartes.1222.fr/aacm/tasks/task_45.geojson",
	"Circuit #46 (Triangle 86,52 km)": "https://cartes.1222.fr/aacm/tasks/task_46.geojson",
	"Circuit #47 (Polygon 522,81 km)": "https://cartes.1222.fr/aacm/tasks/task_47.geojson"
    },
    "ignore": {
	"SUP AIP": {
	    "136/18 (14 juillet)": "http://example.org/sup_aip_136_18.geojson",
	    "R 3103 A-E (CBASE)": "http://lf_r_3103_cbase.geojson",
	    "R 3103 F-P (CEL)": "http://lf_r_3103_cel.geojson"
	}
    }
}
